{
    "packageDirectories": [
        {
            "path": "force-app",
            "default": true,
            "package": "iAutomation",
            "versionName": "ver 0.1",
            "versionNumber": "0.1.0.NEXT"
        }
    ],
    "name": "iAutomation",
    "namespace": "",
    "sfdcLoginUrl": "https://login.salesforce.com",
    "sourceApiVersion": "51.0",
    "packageAliases": {
        "iAutomation": "0Ho3z0000004ClACAU",
        "iAutomation@0.1.0-1": "04t3z0000027z2hAAA",
        "iAutomation@0.1.0-2": "04t3z0000027z2mAAA",
        "iAutomation@0.1.0-3": "04t3z0000027z2nAAA",
        "iAutomation@0.1.0-4": "04t3z0000027z2rAAA",
        "iAutomation@0.1.0-5": "04t3z0000027z2sAAA"
    }
}